^C:\USERS\MAGSHIMIM\DESKTOP\PROJECT\TRIVIAV2\TRIVIA - BACKEND\DATABASE.CPP
/c /ZI /nologo /W3 /WX- /diagnostics:classic /sdl /Od /Oy- /D _MBCS /Gm /EHsc /RTC1 /MDd /GS /fp:precise /permissive- /Zc:wchar_t /Zc:forScope /Zc:inline /Fo"DEBUG\\" /Fd"DEBUG\VC141.PDB" /Gd /TP /analyze- C:\USERS\MAGSHIMIM\DESKTOP\PROJECT\TRIVIAV2\TRIVIA - BACKEND\DATABASE.CPP
^C:\USERS\MAGSHIMIM\DESKTOP\PROJECT\TRIVIAV2\TRIVIA - BACKEND\HELPER.CPP
/c /ZI /nologo /W3 /WX- /diagnostics:classic /sdl /Od /Oy- /D _MBCS /Gm /EHsc /RTC1 /MDd /GS /fp:precise /permissive- /Zc:wchar_t /Zc:forScope /Zc:inline /Fo"DEBUG\\" /Fd"DEBUG\VC141.PDB" /Gd /TP /analyze- C:\USERS\MAGSHIMIM\DESKTOP\PROJECT\TRIVIAV2\TRIVIA - BACKEND\HELPER.CPP
^C:\USERS\MAGSHIMIM\DESKTOP\PROJECT\TRIVIAV2\TRIVIA - BACKEND\RECIEVEDMESSAGE.CPP
/c /ZI /nologo /W3 /WX- /diagnostics:classic /sdl /Od /Oy- /D _MBCS /Gm /EHsc /RTC1 /MDd /GS /fp:precise /permissive- /Zc:wchar_t /Zc:forScope /Zc:inline /Fo"DEBUG\\" /Fd"DEBUG\VC141.PDB" /Gd /TP /analyze- C:\USERS\MAGSHIMIM\DESKTOP\PROJECT\TRIVIAV2\TRIVIA - BACKEND\RECIEVEDMESSAGE.CPP
^C:\USERS\MAGSHIMIM\DESKTOP\PROJECT\TRIVIAV2\TRIVIA - BACKEND\ROOM.CPP
/c /ZI /nologo /W3 /WX- /diagnostics:classic /sdl /Od /Oy- /D _MBCS /Gm /EHsc /RTC1 /MDd /GS /fp:precise /permissive- /Zc:wchar_t /Zc:forScope /Zc:inline /Fo"DEBUG\\" /Fd"DEBUG\VC141.PDB" /Gd /TP /analyze- C:\USERS\MAGSHIMIM\DESKTOP\PROJECT\TRIVIAV2\TRIVIA - BACKEND\ROOM.CPP
^C:\USERS\MAGSHIMIM\DESKTOP\PROJECT\TRIVIAV2\TRIVIA - BACKEND\SOURCE.CPP
/c /ZI /nologo /W3 /WX- /diagnostics:classic /sdl /Od /Oy- /D _MBCS /Gm /EHsc /RTC1 /MDd /GS /fp:precise /permissive- /Zc:wchar_t /Zc:forScope /Zc:inline /Fo"DEBUG\\" /Fd"DEBUG\VC141.PDB" /Gd /TP /analyze- C:\USERS\MAGSHIMIM\DESKTOP\PROJECT\TRIVIAV2\TRIVIA - BACKEND\SOURCE.CPP
^C:\USERS\MAGSHIMIM\DESKTOP\PROJECT\TRIVIAV2\TRIVIA - BACKEND\TEMPUSER.CPP
/c /ZI /nologo /W3 /WX- /diagnostics:classic /sdl /Od /Oy- /D _MBCS /Gm /EHsc /RTC1 /MDd /GS /fp:precise /permissive- /Zc:wchar_t /Zc:forScope /Zc:inline /Fo"DEBUG\\" /Fd"DEBUG\VC141.PDB" /Gd /TP /analyze- C:\USERS\MAGSHIMIM\DESKTOP\PROJECT\TRIVIAV2\TRIVIA - BACKEND\TEMPUSER.CPP
^C:\USERS\MAGSHIMIM\DESKTOP\PROJECT\TRIVIAV2\TRIVIA - BACKEND\TRIVIASERVER.CPP
/c /ZI /nologo /W3 /WX- /diagnostics:classic /sdl /Od /Oy- /D _MBCS /Gm /EHsc /RTC1 /MDd /GS /fp:precise /permissive- /Zc:wchar_t /Zc:forScope /Zc:inline /Fo"DEBUG\\" /Fd"DEBUG\VC141.PDB" /Gd /TP /analyze- C:\USERS\MAGSHIMIM\DESKTOP\PROJECT\TRIVIAV2\TRIVIA - BACKEND\TRIVIASERVER.CPP
^C:\USERS\MAGSHIMIM\DESKTOP\PROJECT\TRIVIAV2\TRIVIA - BACKEND\USER.CPP
/c /ZI /nologo /W3 /WX- /diagnostics:classic /sdl /Od /Oy- /D _MBCS /Gm /EHsc /RTC1 /MDd /GS /fp:precise /permissive- /Zc:wchar_t /Zc:forScope /Zc:inline /Fo"DEBUG\\" /Fd"DEBUG\VC141.PDB" /Gd /TP /analyze- C:\USERS\MAGSHIMIM\DESKTOP\PROJECT\TRIVIAV2\TRIVIA - BACKEND\USER.CPP
^C:\USERS\MAGSHIMIM\DESKTOP\PROJECT\TRIVIAV2\TRIVIA - BACKEND\VALIDATOR.CPP
/c /ZI /nologo /W3 /WX- /diagnostics:classic /sdl /Od /Oy- /D _MBCS /Gm /EHsc /RTC1 /MDd /GS /fp:precise /permissive- /Zc:wchar_t /Zc:forScope /Zc:inline /Fo"DEBUG\\" /Fd"DEBUG\VC141.PDB" /Gd /TP /analyze- C:\USERS\MAGSHIMIM\DESKTOP\PROJECT\TRIVIAV2\TRIVIA - BACKEND\VALIDATOR.CPP
^C:\USERS\MAGSHIMIM\DESKTOP\PROJECT\TRIVIAV2\TRIVIA - BACKEND\WSAINITIALIZER.CPP
/c /ZI /nologo /W3 /WX- /diagnostics:classic /sdl /Od /Oy- /D _MBCS /Gm /EHsc /RTC1 /MDd /GS /fp:precise /permissive- /Zc:wchar_t /Zc:forScope /Zc:inline /Fo"DEBUG\\" /Fd"DEBUG\VC141.PDB" /Gd /TP /analyze- C:\USERS\MAGSHIMIM\DESKTOP\PROJECT\TRIVIAV2\TRIVIA - BACKEND\WSAINITIALIZER.CPP
